Programmatic interface to OpenM++ • openmpp
…
Example

Here we will work through a very simple example of creating a new scenario, extracting parameters to change, changing parameters, running the model, and extracting results.

library(openmpp)
library(dplyr)
library(ggplot2)

use_OpenMpp_remote()

Let’s see what models are available:

get_models()
#> # A tibble: 22 × 7
#>    ModelId Name              Digest  Type Version CreateDateTime DefaultLangCode
#>      <int> <chr>             <chr>  <int> <chr>   <chr>          <chr>          
#>  1     101 OncoSimX-allcanc… c1d97…     0 3.6.2.5 2023-11-03 18… EN             
#>  2     101 OncoSimX-breast   742b9…     0 3.6.2.5 2023-11-03 18… EN             
#>  3     101 OncoSimX-cervical 72c69…     0 3.6.2.5 2023-11-03 19… EN             
#>  4     101 OncoSimX-colorec… 6802a…     0 3.6.2.5 2023-11-03 19… EN             
#>  5     101 OncoSimX-gmm      46607…     0 3.6.2.5 2023-11-03 19… EN             
#>  6     101 OncoSimX-lung     f3611…     0 3.6.2.5 2023-11-03 19… EN             
#>  7     101 OncoSimX-allcanc… 41146…     0 3.6.2.4 2023-09-20 18… EN             
#>  8     101 OncoSimX-breast   55c8b…     0 3.6.2.4 2023-09-20 17… EN             
#>  9     101 OncoSimX-cervical bb3b5…     0 3.6.2.4 2023-09-20 18… EN             
#> 10     101 OncoSimX-colorec… 36999…     0 3.6.2.4 2023-09-20 18… EN             
#> # ℹ 12 more rows
…
