…
We can now extract an output table from this model run using
`$get_table()`.

``` r
example_run$Breast_Cancer_Cases_Table
#> # A tibble: 8,177 × 4
#>    expr_name                        Province                   Year expr_value
#>    <chr>                            <chr>                     <dbl>      <dbl>
#>  1 Incidence_of_i_x_d_DCIS_combined Newfoundland_and_Labrador  2015          0
#>  2 Incidence_of_i_x_d_DCIS_combined Newfoundland_and_Labrador  2016          0
#>  3 Incidence_of_i_x_d_DCIS_combined Newfoundland_and_Labrador  2017          0
#>  4 Incidence_of_i_x_d_DCIS_combined Newfoundland_and_Labrador  2018          0
#>  5 Incidence_of_i_x_d_DCIS_combined Newfoundland_and_Labrador  2019          0
#>  6 Incidence_of_i_x_d_DCIS_combined Newfoundland_and_Labrador  2020          0
#>  7 Incidence_of_i_x_d_DCIS_combined Newfoundland_and_Labrador  2021          0
#>  8 Incidence_of_i_x_d_DCIS_combined Newfoundland_and_Labrador  2022          0
#>  9 Incidence_of_i_x_d_DCIS_combined Newfoundland_and_Labrador  2023          0
#> 10 Incidence_of_i_x_d_DCIS_combined Newfoundland_and_Labrador  2024          0
#> # ℹ 8,167 more rows
```
…
We will extract a new table from both models. Note that an extra column,
`RunName` is added to indicate which model run the output table data
corresponds to.

``` r
cost_bystage <- breast_runs$Breast_Cancer_Cost_ByStage_Table
cost_bystage
#> # A tibble: 80 × 4
#>    RunName                             expr_name            Stage     expr_value
#>    <chr>                               <chr>                <chr>          <dbl>
#>  1 Default_first_run_32M_cases_12_subs Total_treatment_cost Breast_c…    4.95e 8
#>  2 Default_first_run_32M_cases_12_subs Total_treatment_cost Breast_c…    3.17e 9
#>  3 Default_first_run_32M_cases_12_subs Total_treatment_cost Breast_c…    3.17e 8
#>  4 Default_first_run_32M_cases_12_subs Total_treatment_cost Breast_c…    2.59e 9
#>  5 Default_first_run_32M_cases_12_subs Total_treatment_cost Breast_c…    2.06e 9
#>  6 Default_first_run_32M_cases_12_subs Total_treatment_cost Breast_c…    1.54e 9
#>  7 Default_first_run_32M_cases_12_subs Total_treatment_cost Breast_c…    2.77e 8
#>  8 Default_first_run_32M_cases_12_subs Total_treatment_cost Breast_c…    7.54e 8
#>  9 Default_first_run_32M_cases_12_subs Total_treatment_cost Breast_c…    1.27e 9
#> 10 Default_first_run_32M_cases_12_subs Total_treatment_cost all          1.25e10
#> # ℹ 70 more rows
```
…
